<svg width="521" height="329" viewBox="0 0 521 329" fill="none" xmlns="http://www.w3.org/2000/svg">
<path d="M0.5 61.5V65.5M0.5 65.5V120H29L55 135L72 160L47.5 171L38 201.5L67.5 249L91 285L274.5 328L309.5 296.5L314.5 285L363 275L394.5 258L463.5 252.5L487.5 212.5L520 176V127L484 47.5L452 1L377 70.5L352.5 55.5L330 96L274.5 26.5L246 85L251 108L139 47.5L119 76.5L116.5 108L0.5 59V65.5Z" stroke="black"/>
</svg>
